{
    "help": "https://data.gov.sg/api/3/action/help_show?name=datastore_search",
    "success": true,
    "result": {
        "resource_id": "d_0985f14ebfa532efb5ea1931b6195f61",
        "fields": [
            {
                "type": "numeric",
                "id": "yr"
            },
            {
                "type": "text",
                "id": "age_grp"
            },
            {
                "type": "text",
                "id": "gender"
            },
            {
                "type": "numeric",
                "id": "net_bal_amt"
            },
            {
                "type": "int4",
                "id": "_id"
            }
        ],
        "records": [
            {
                "_id": 1,
                "yr": "2014",
                "age_grp": "Up to 20",
                "gender": "Male",
                "net_bal_amt": "67871000"
            },
            {
                "_id": 2,
                "yr": "2014",
                "age_grp": "Up to 20",
                "gender": "Female",
                "net_bal_amt": "85612000"
            },
            {
                "_id": 3,
                "yr": "2014",
                "age_grp": "Up to 20",
                "gender": "Unspecified",
                "net_bal_amt": "0"
            },
            {
                "_id": 4,
                "yr": "2014",
                "age_grp": ">20 - 25",
                "gender": "Male",
                "net_bal_amt": "839583000"
            },
            {
                "_id": 5,
                "yr": "2014",
                "age_grp": ">20 - 25",
                "gender": "Female",
                "net_bal_amt": "1501948000"
            },
            {
                "_id": 6,
                "yr": "2014",
                "age_grp": ">20 - 25",
                "gender": "Unspecified",
                "net_bal_amt": "0"
            },
            {
                "_id": 7,
                "yr": "2014",
                "age_grp": ">25 - 30",
                "gender": "Male",
                "net_bal_amt": "4641796000"
            },
            {
                "_id": 8,
                "yr": "2014",
                "age_grp": ">25 - 30",
                "gender": "Female",
                "net_bal_amt": "6169479000"
            },
            {
                "_id": 9,
                "yr": "2014",
                "age_grp": ">25 - 30",
                "gender": "Unspecified",
                "net_bal_amt": "0"
            },
            {
                "_id": 10,
                "yr": "2014",
                "age_grp": ">30 - 35",
                "gender": "Male",
                "net_bal_amt": "10139506000"
            },
            {
                "_id": 11,
                "yr": "2014",
                "age_grp": ">30 - 35",
                "gender": "Female",
                "net_bal_amt": "10792830000"
            },
            {
                "_id": 12,
                "yr": "2014",
                "age_grp": ">30 - 35",
                "gender": "Unspecified",
                "net_bal_amt": "17000"
            },
            {
                "_id": 13,
                "yr": "2014",
                "age_grp": ">35 - 40",
                "gender": "Male",
                "net_bal_amt": "15237331000"
            },
            {
                "_id": 14,
                "yr": "2014",
                "age_grp": ">35 - 40",
                "gender": "Female",
                "net_bal_amt": "15377380000"
            },
            {
                "_id": 15,
                "yr": "2014",
                "age_grp": ">35 - 40",
                "gender": "Unspecified",
                "net_bal_amt": "129000"
            },
            {
                "_id": 16,
                "yr": "2014",
                "age_grp": ">40 - 45",
                "gender": "Male",
                "net_bal_amt": "21342369000"
            },
            {
                "_id": 17,
                "yr": "2014",
                "age_grp": ">40 - 45",
                "gender": "Female",
                "net_bal_amt": "19596358000"
            },
            {
                "_id": 18,
                "yr": "2014",
                "age_grp": ">40 - 45",
                "gender": "Unspecified",
                "net_bal_amt": "272000"
            },
            {
                "_id": 19,
                "yr": "2014",
                "age_grp": ">45 - 50",
                "gender": "Male",
                "net_bal_amt": "23969263000"
            },
            {
                "_id": 20,
                "yr": "2014",
                "age_grp": ">45 - 50",
                "gender": "Female",
                "net_bal_amt": "19568768000"
            },
            {
                "_id": 21,
                "yr": "2014",
                "age_grp": ">45 - 50",
                "gender": "Unspecified",
                "net_bal_amt": "421000"
            },
            {
                "_id": 22,
                "yr": "2014",
                "age_grp": ">50 - 55",
                "gender": "Male",
                "net_bal_amt": "26639002000"
            },
            {
                "_id": 23,
                "yr": "2014",
                "age_grp": ">50 - 55",
                "gender": "Female",
                "net_bal_amt": "20013912000"
            },
            {
                "_id": 24,
                "yr": "2014",
                "age_grp": ">50 - 55",
                "gender": "Unspecified",
                "net_bal_amt": "1196000"
            },
            {
                "_id": 25,
                "yr": "2014",
                "age_grp": ">55 - 60",
                "gender": "Male",
                "net_bal_amt": "20245427000"
            },
            {
                "_id": 26,
                "yr": "2014",
                "age_grp": ">55 - 60",
                "gender": "Female",
                "net_bal_amt": "15415604000"
            },
            {
                "_id": 27,
                "yr": "2014",
                "age_grp": ">55 - 60",
                "gender": "Unspecified",
                "net_bal_amt": "694000"
            },
            {
                "_id": 28,
                "yr": "2014",
                "age_grp": "Above 60",
                "gender": "Male",
                "net_bal_amt": "25445782000"
            },
            {
                "_id": 29,
                "yr": "2014",
                "age_grp": "Above 60",
                "gender": "Female",
                "net_bal_amt": "18048507000"
            },
            {
                "_id": 30,
                "yr": "2014",
                "age_grp": "Above 60",
                "gender": "Unspecified",
                "net_bal_amt": "561000"
            },
            {
                "_id": 31,
                "yr": "2014",
                "age_grp": "Unspecified",
                "gender": "Male",
                "net_bal_amt": "121856000"
            },
            {
                "_id": 32,
                "yr": "2014",
                "age_grp": "Unspecified",
                "gender": "Female",
                "net_bal_amt": "95950000"
            },
            {
                "_id": 33,
                "yr": "2014",
                "age_grp": "Unspecified",
                "gender": "Unspecified",
                "net_bal_amt": "4507000"
            },
            {
                "_id": 34,
                "yr": "2015",
                "age_grp": "Up to 20",
                "gender": "Male",
                "net_bal_amt": "78068000"
            },
            {
                "_id": 35,
                "yr": "2015",
                "age_grp": "Up to 20",
                "gender": "Female",
                "net_bal_amt": "93305000"
            },
            {
                "_id": 36,
                "yr": "2015",
                "age_grp": "Up to 20",
                "gender": "Unspecified",
                "net_bal_amt": "0"
            },
            {
                "_id": 37,
                "yr": "2015",
                "age_grp": ">20 - 25",
                "gender": "Male",
                "net_bal_amt": "915091000"
            },
            {
                "_id": 38,
                "yr": "2015",
                "age_grp": ">20 - 25",
                "gender": "Female",
                "net_bal_amt": "1526143000"
            },
            {
                "_id": 39,
                "yr": "2015",
                "age_grp": ">20 - 25",
                "gender": "Unspecified",
                "net_bal_amt": "0"
            },
            {
                "_id": 40,
                "yr": "2015",
                "age_grp": ">25 - 30",
                "gender": "Male",
                "net_bal_amt": "4967350000"
            },
            {
                "_id": 41,
                "yr": "2015",
                "age_grp": ">25 - 30",
                "gender": "Female",
                "net_bal_amt": "6586240000"
            },
            {
                "_id": 42,
                "yr": "2015",
                "age_grp": ">25 - 30",
                "gender": "Unspecified",
                "net_bal_amt": "0"
            },
            {
                "_id": 43,
                "yr": "2015",
                "age_grp": ">30 - 35",
                "gender": "Male",
                "net_bal_amt": "10652664000"
            },
            {
                "_id": 44,
                "yr": "2015",
                "age_grp": ">30 - 35",
                "gender": "Female",
                "net_bal_amt": "11419635000"
            },
            {
                "_id": 45,
                "yr": "2015",
                "age_grp": ">30 - 35",
                "gender": "Unspecified",
                "net_bal_amt": "0"
            },
            {
                "_id": 46,
                "yr": "2015",
                "age_grp": ">35 - 40",
                "gender": "Male",
                "net_bal_amt": "16147550000"
            },
            {
                "_id": 47,
                "yr": "2015",
                "age_grp": ">35 - 40",
                "gender": "Female",
                "net_bal_amt": "16367736000"
            },
            {
                "_id": 48,
                "yr": "2015",
                "age_grp": ">35 - 40",
                "gender": "Unspecified",
                "net_bal_amt": "145000"
            },
            {
                "_id": 49,
                "yr": "2015",
                "age_grp": ">40 - 45",
                "gender": "Male",
                "net_bal_amt": "22537201000"
            },
            {
                "_id": 50,
                "yr": "2015",
                "age_grp": ">40 - 45",
                "gender": "Female",
                "net_bal_amt": "20935424000"
            },
            {
                "_id": 51,
                "yr": "2015",
                "age_grp": ">40 - 45",
                "gender": "Unspecified",
                "net_bal_amt": "223000"
            },
            {
                "_id": 52,
                "yr": "2015",
                "age_grp": ">45 - 50",
                "gender": "Male",
                "net_bal_amt": "25397136000"
            },
            {
                "_id": 53,
                "yr": "2015",
                "age_grp": ">45 - 50",
                "gender": "Female",
                "net_bal_amt": "21154784000"
            },
            {
                "_id": 54,
                "yr": "2015",
                "age_grp": ">45 - 50",
                "gender": "Unspecified",
                "net_bal_amt": "418000"
            },
            {
                "_id": 55,
                "yr": "2015",
                "age_grp": ">50 - 55",
                "gender": "Male",
                "net_bal_amt": "28485030000"
            },
            {
                "_id": 56,
                "yr": "2015",
                "age_grp": ">50 - 55",
                "gender": "Female",
                "net_bal_amt": "21767741000"
            },
            {
                "_id": 57,
                "yr": "2015",
                "age_grp": ">50 - 55",
                "gender": "Unspecified",
                "net_bal_amt": "901000"
            },
            {
                "_id": 58,
                "yr": "2015",
                "age_grp": ">55 - 60",
                "gender": "Male",
                "net_bal_amt": "21389489000"
            },
            {
                "_id": 59,
                "yr": "2015",
                "age_grp": ">55 - 60",
                "gender": "Female",
                "net_bal_amt": "16558033000"
            },
            {
                "_id": 60,
                "yr": "2015",
                "age_grp": ">55 - 60",
                "gender": "Unspecified",
                "net_bal_amt": "673000"
            },
            {
                "_id": 61,
                "yr": "2015",
                "age_grp": "Above 60",
                "gender": "Male",
                "net_bal_amt": "30169770000"
            },
            {
                "_id": 62,
                "yr": "2015",
                "age_grp": "Above 60",
                "gender": "Female",
                "net_bal_amt": "22034557000"
            },
            {
                "_id": 63,
                "yr": "2015",
                "age_grp": "Above 60",
                "gender": "Unspecified",
                "net_bal_amt": "529000"
            },
            {
                "_id": 64,
                "yr": "2015",
                "age_grp": "Unspecified",
                "gender": "Male",
                "net_bal_amt": "179764000"
            },
            {
                "_id": 65,
                "yr": "2015",
                "age_grp": "Unspecified",
                "gender": "Female",
                "net_bal_amt": "152392000"
            },
            {
                "_id": 66,
                "yr": "2015",
                "age_grp": "Unspecified",
                "gender": "Unspecified",
                "net_bal_amt": "4390000"
            },
            {
                "_id": 67,
                "yr": "2016",
                "age_grp": "Up to 20",
                "gender": "Male",
                "net_bal_amt": "80925000"
            },
            {
                "_id": 68,
                "yr": "2016",
                "age_grp": "Up to 20",
                "gender": "Female",
                "net_bal_amt": "95719000"
            },
            {
                "_id": 69,
                "yr": "2016",
                "age_grp": "Up to 20",
                "gender": "Unspecified",
                "net_bal_amt": "0"
            },
            {
                "_id": 70,
                "yr": "2016",
                "age_grp": ">20 - 25",
                "gender": "Male",
                "net_bal_amt": "983748000"
            },
            {
                "_id": 71,
                "yr": "2016",
                "age_grp": ">20 - 25",
                "gender": "Female",
                "net_bal_amt": "1544050000"
            },
            {
                "_id": 72,
                "yr": "2016",
                "age_grp": ">20 - 25",
                "gender": "Unspecified",
                "net_bal_amt": "0"
            },
            {
                "_id": 73,
                "yr": "2016",
                "age_grp": ">25 - 30",
                "gender": "Male",
                "net_bal_amt": "5488610000"
            },
            {
                "_id": 74,
                "yr": "2016",
                "age_grp": ">25 - 30",
                "gender": "Female",
                "net_bal_amt": "7230629000"
            },
            {
                "_id": 75,
                "yr": "2016",
                "age_grp": ">25 - 30",
                "gender": "Unspecified",
                "net_bal_amt": "0"
            },
            {
                "_id": 76,
                "yr": "2016",
                "age_grp": ">30 - 35",
                "gender": "Male",
                "net_bal_amt": "11021166000"
            },
            {
                "_id": 77,
                "yr": "2016",
                "age_grp": ">30 - 35",
                "gender": "Female",
                "net_bal_amt": "11868191000"
            },
            {
                "_id": 78,
                "yr": "2016",
                "age_grp": ">30 - 35",
                "gender": "Unspecified",
                "net_bal_amt": "0"
            },
            {
                "_id": 79,
                "yr": "2016",
                "age_grp": ">35 - 40",
                "gender": "Male",
                "net_bal_amt": "16930721000"
            },
            {
                "_id": 80,
                "yr": "2016",
                "age_grp": ">35 - 40",
                "gender": "Female",
                "net_bal_amt": "17157337000"
            },
            {
                "_id": 81,
                "yr": "2016",
                "age_grp": ">35 - 40",
                "gender": "Unspecified",
                "net_bal_amt": "37000"
            },
            {
                "_id": 82,
                "yr": "2016",
                "age_grp": ">40 - 45",
                "gender": "Male",
                "net_bal_amt": "23846469000"
            },
            {
                "_id": 83,
                "yr": "2016",
                "age_grp": ">40 - 45",
                "gender": "Female",
                "net_bal_amt": "22463327000"
            },
            {
                "_id": 84,
                "yr": "2016",
                "age_grp": ">40 - 45",
                "gender": "Unspecified",
                "net_bal_amt": "245000"
            },
            {
                "_id": 85,
                "yr": "2016",
                "age_grp": ">45 - 50",
                "gender": "Male",
                "net_bal_amt": "27151543000"
            },
            {
                "_id": 86,
                "yr": "2016",
                "age_grp": ">45 - 50",
                "gender": "Female",
                "net_bal_amt": "23187526000"
            },
            {
                "_id": 87,
                "yr": "2016",
                "age_grp": ">45 - 50",
                "gender": "Unspecified",
                "net_bal_amt": "371000"
            },
            {
                "_id": 88,
                "yr": "2016",
                "age_grp": ">50 - 55",
                "gender": "Male",
                "net_bal_amt": "30533734000"
            },
            {
                "_id": 89,
                "yr": "2016",
                "age_grp": ">50 - 55",
                "gender": "Female",
                "net_bal_amt": "23683033000"
            },
            {
                "_id": 90,
                "yr": "2016",
                "age_grp": ">50 - 55",
                "gender": "Unspecified",
                "net_bal_amt": "896000"
            },
            {
                "_id": 91,
                "yr": "2016",
                "age_grp": ">55 - 60",
                "gender": "Male",
                "net_bal_amt": "23641330000"
            },
            {
                "_id": 92,
                "yr": "2016",
                "age_grp": ">55 - 60",
                "gender": "Female",
                "net_bal_amt": "18597527000"
            },
            {
                "_id": 93,
                "yr": "2016",
                "age_grp": ">55 - 60",
                "gender": "Unspecified",
                "net_bal_amt": "756000"
            },
            {
                "_id": 94,
                "yr": "2016",
                "age_grp": "Above 60",
                "gender": "Male",
                "net_bal_amt": "35879450000"
            },
            {
                "_id": 95,
                "yr": "2016",
                "age_grp": "Above 60",
                "gender": "Female",
                "net_bal_amt": "26933380000"
            },
            {
                "_id": 96,
                "yr": "2016",
                "age_grp": "Above 60",
                "gender": "Unspecified",
                "net_bal_amt": "601000"
            },
            {
                "_id": 97,
                "yr": "2016",
                "age_grp": "Unspecified",
                "gender": "Male",
                "net_bal_amt": "300613000"
            },
            {
                "_id": 98,
                "yr": "2016",
                "age_grp": "Unspecified",
                "gender": "Female",
                "net_bal_amt": "268933000"
            },
            {
                "_id": 99,
                "yr": "2016",
                "age_grp": "Unspecified",
                "gender": "Unspecified",
                "net_bal_amt": "4416000"
            },
            {
                "_id": 100,
                "yr": "2017",
                "age_grp": "Up to 20",
                "gender": "Male",
                "net_bal_amt": "83909000"
            }
        ],
        "_links": {
            "start": "/api/action/datastore_search?resource_id=d_0985f14ebfa532efb5ea1931b6195f61",
            "next": "/api/action/datastore_search?resource_id=d_0985f14ebfa532efb5ea1931b6195f61&offset=100"
        },
        "total": 165
    }
}
