{
    "help": "https://data.gov.sg/api/3/action/help_show?name=datastore_search",
    "success": true,
    "result": {
        "resource_id": "d_a0982d560463c45e990efef8bb1b4ee5",
        "fields": [
            {
                "type": "numeric",
                "id": "yr"
            },
            {
                "type": "text",
                "id": "age_grp"
            },
            {
                "type": "text",
                "id": "gender"
            },
            {
                "type": "numeric",
                "id": "net_bal_amt"
            },
            {
                "type": "int4",
                "id": "_id"
            }
        ],
        "records": [
            {
                "_id": 1,
                "yr": "2019",
                "age_grp": "Up to 20",
                "gender": "Male",
                "net_bal_amt": "636931000"
            },
            {
                "_id": 2,
                "yr": "2019",
                "age_grp": "Up to 20",
                "gender": "Female",
                "net_bal_amt": "633835000"
            },
            {
                "_id": 3,
                "yr": "2019",
                "age_grp": ">20 - 25",
                "gender": "Male",
                "net_bal_amt": "993780000"
            },
            {
                "_id": 4,
                "yr": "2019",
                "age_grp": ">20 - 25",
                "gender": "Female",
                "net_bal_amt": "1487522000"
            },
            {
                "_id": 5,
                "yr": "2019",
                "age_grp": ">25 - 30",
                "gender": "Male",
                "net_bal_amt": "6118562000"
            },
            {
                "_id": 6,
                "yr": "2019",
                "age_grp": ">25 - 30",
                "gender": "Female",
                "net_bal_amt": "7960614000"
            },
            {
                "_id": 7,
                "yr": "2019",
                "age_grp": ">30 - 35",
                "gender": "Male",
                "net_bal_amt": "12921748000"
            },
            {
                "_id": 8,
                "yr": "2019",
                "age_grp": ">30 - 35",
                "gender": "Female",
                "net_bal_amt": "14452302000"
            },
            {
                "_id": 9,
                "yr": "2019",
                "age_grp": ">35 - 40",
                "gender": "Male",
                "net_bal_amt": "19664187000"
            },
            {
                "_id": 10,
                "yr": "2019",
                "age_grp": ">35 - 40",
                "gender": "Female",
                "net_bal_amt": "20213440000"
            },
            {
                "_id": 11,
                "yr": "2019",
                "age_grp": ">40 - 45",
                "gender": "Male",
                "net_bal_amt": "26547293000"
            },
            {
                "_id": 12,
                "yr": "2019",
                "age_grp": ">40 - 45",
                "gender": "Female",
                "net_bal_amt": "25734067000"
            },
            {
                "_id": 13,
                "yr": "2019",
                "age_grp": ">45 - 50",
                "gender": "Male",
                "net_bal_amt": "33692104000"
            },
            {
                "_id": 14,
                "yr": "2019",
                "age_grp": ">45 - 50",
                "gender": "Female",
                "net_bal_amt": "30454148000"
            },
            {
                "_id": 15,
                "yr": "2019",
                "age_grp": ">50 - 55",
                "gender": "Male",
                "net_bal_amt": "35660686000"
            },
            {
                "_id": 16,
                "yr": "2019",
                "age_grp": ">50 - 55",
                "gender": "Female",
                "net_bal_amt": "29487481000"
            },
            {
                "_id": 17,
                "yr": "2019",
                "age_grp": ">55 - 60",
                "gender": "Male",
                "net_bal_amt": "33082753000"
            },
            {
                "_id": 18,
                "yr": "2019",
                "age_grp": ">55 - 60",
                "gender": "Female",
                "net_bal_amt": "27184728000"
            },
            {
                "_id": 19,
                "yr": "2019",
                "age_grp": ">60 - 65",
                "gender": "Male",
                "net_bal_amt": "26224287000"
            },
            {
                "_id": 20,
                "yr": "2019",
                "age_grp": ">60 - 65",
                "gender": "Female",
                "net_bal_amt": "21561786000"
            },
            {
                "_id": 21,
                "yr": "2019",
                "age_grp": ">65 - 70",
                "gender": "Male",
                "net_bal_amt": "16835902000"
            },
            {
                "_id": 22,
                "yr": "2019",
                "age_grp": ">65 - 70",
                "gender": "Female",
                "net_bal_amt": "13053537000"
            },
            {
                "_id": 23,
                "yr": "2019",
                "age_grp": ">70 - 75",
                "gender": "Male",
                "net_bal_amt": "7338894000"
            },
            {
                "_id": 24,
                "yr": "2019",
                "age_grp": ">70 - 75",
                "gender": "Female",
                "net_bal_amt": "5807908000"
            },
            {
                "_id": 25,
                "yr": "2019",
                "age_grp": ">75 - 80",
                "gender": "Male",
                "net_bal_amt": "2316277000"
            },
            {
                "_id": 26,
                "yr": "2019",
                "age_grp": ">75 - 80",
                "gender": "Female",
                "net_bal_amt": "1810117000"
            },
            {
                "_id": 27,
                "yr": "2019",
                "age_grp": "Above 80",
                "gender": "Male",
                "net_bal_amt": "1656805000"
            },
            {
                "_id": 28,
                "yr": "2019",
                "age_grp": "Above 80",
                "gender": "Female",
                "net_bal_amt": "1542904000"
            },
            {
                "_id": 29,
                "yr": "2019",
                "age_grp": "Unspecified",
                "gender": "Male",
                "net_bal_amt": "22851000"
            },
            {
                "_id": 30,
                "yr": "2019",
                "age_grp": "Unspecified",
                "gender": "Female",
                "net_bal_amt": "5627000"
            },
            {
                "_id": 31,
                "yr": "2020",
                "age_grp": "Up to 20",
                "gender": "Male",
                "net_bal_amt": "740025000"
            },
            {
                "_id": 32,
                "yr": "2020",
                "age_grp": "Up to 20",
                "gender": "Female",
                "net_bal_amt": "731882000"
            },
            {
                "_id": 33,
                "yr": "2020",
                "age_grp": ">20 - 25",
                "gender": "Male",
                "net_bal_amt": "972301000"
            },
            {
                "_id": 34,
                "yr": "2020",
                "age_grp": ">20 - 25",
                "gender": "Female",
                "net_bal_amt": "1464603000"
            },
            {
                "_id": 35,
                "yr": "2020",
                "age_grp": ">25 - 30",
                "gender": "Male",
                "net_bal_amt": "6206812000"
            },
            {
                "_id": 36,
                "yr": "2020",
                "age_grp": ">25 - 30",
                "gender": "Female",
                "net_bal_amt": "8091580000"
            },
            {
                "_id": 37,
                "yr": "2020",
                "age_grp": ">30 - 35",
                "gender": "Male",
                "net_bal_amt": "13943667000"
            },
            {
                "_id": 38,
                "yr": "2020",
                "age_grp": ">30 - 35",
                "gender": "Female",
                "net_bal_amt": "15577899000"
            },
            {
                "_id": 39,
                "yr": "2020",
                "age_grp": ">35 - 40",
                "gender": "Male",
                "net_bal_amt": "20558801000"
            },
            {
                "_id": 40,
                "yr": "2020",
                "age_grp": ">35 - 40",
                "gender": "Female",
                "net_bal_amt": "21422301000"
            },
            {
                "_id": 41,
                "yr": "2020",
                "age_grp": ">40 - 45",
                "gender": "Male",
                "net_bal_amt": "28010239000"
            },
            {
                "_id": 42,
                "yr": "2020",
                "age_grp": ">40 - 45",
                "gender": "Female",
                "net_bal_amt": "27448761000"
            },
            {
                "_id": 43,
                "yr": "2020",
                "age_grp": ">45 - 50",
                "gender": "Male",
                "net_bal_amt": "35355540000"
            },
            {
                "_id": 44,
                "yr": "2020",
                "age_grp": ">45 - 50",
                "gender": "Female",
                "net_bal_amt": "32491001000"
            },
            {
                "_id": 45,
                "yr": "2020",
                "age_grp": ">50 - 55",
                "gender": "Male",
                "net_bal_amt": "37760255000"
            },
            {
                "_id": 46,
                "yr": "2020",
                "age_grp": ">50 - 55",
                "gender": "Female",
                "net_bal_amt": "31976543000"
            },
            {
                "_id": 47,
                "yr": "2020",
                "age_grp": ">55 - 60",
                "gender": "Male",
                "net_bal_amt": "36455056000"
            },
            {
                "_id": 48,
                "yr": "2020",
                "age_grp": ">55 - 60",
                "gender": "Female",
                "net_bal_amt": "30367427000"
            },
            {
                "_id": 49,
                "yr": "2020",
                "age_grp": ">60 - 65",
                "gender": "Male",
                "net_bal_amt": "28542333000"
            },
            {
                "_id": 50,
                "yr": "2020",
                "age_grp": ">60 - 65",
                "gender": "Female",
                "net_bal_amt": "23723886000"
            },
            {
                "_id": 51,
                "yr": "2020",
                "age_grp": ">65 - 70",
                "gender": "Male",
                "net_bal_amt": "19410367000"
            },
            {
                "_id": 52,
                "yr": "2020",
                "age_grp": ">65 - 70",
                "gender": "Female",
                "net_bal_amt": "15530331000"
            },
            {
                "_id": 53,
                "yr": "2020",
                "age_grp": ">70 - 75",
                "gender": "Male",
                "net_bal_amt": "9285408000"
            },
            {
                "_id": 54,
                "yr": "2020",
                "age_grp": ">70 - 75",
                "gender": "Female",
                "net_bal_amt": "7509731000"
            },
            {
                "_id": 55,
                "yr": "2020",
                "age_grp": ">75 - 80",
                "gender": "Male",
                "net_bal_amt": "2587764000"
            },
            {
                "_id": 56,
                "yr": "2020",
                "age_grp": ">75 - 80",
                "gender": "Female",
                "net_bal_amt": "2062584000"
            },
            {
                "_id": 57,
                "yr": "2020",
                "age_grp": "Above 80",
                "gender": "Male",
                "net_bal_amt": "1985687000"
            },
            {
                "_id": 58,
                "yr": "2020",
                "age_grp": "Above 80",
                "gender": "Female",
                "net_bal_amt": "1881100000"
            },
            {
                "_id": 59,
                "yr": "2020",
                "age_grp": "Unspecified",
                "gender": "Male",
                "net_bal_amt": "22851000"
            },
            {
                "_id": 60,
                "yr": "2020",
                "age_grp": "Unspecified",
                "gender": "Female",
                "net_bal_amt": "5800000"
            },
            {
                "_id": 61,
                "yr": "2021",
                "age_grp": "Up to 20",
                "gender": "Male",
                "net_bal_amt": "881145000"
            },
            {
                "_id": 62,
                "yr": "2021",
                "age_grp": "Up to 20",
                "gender": "Female",
                "net_bal_amt": "871983000"
            },
            {
                "_id": 63,
                "yr": "2021",
                "age_grp": ">20 - 25",
                "gender": "Male",
                "net_bal_amt": "986890000"
            },
            {
                "_id": 64,
                "yr": "2021",
                "age_grp": ">20 - 25",
                "gender": "Female",
                "net_bal_amt": "1472886000"
            },
            {
                "_id": 65,
                "yr": "2021",
                "age_grp": ">25 - 30",
                "gender": "Male",
                "net_bal_amt": "6354506000"
            },
            {
                "_id": 66,
                "yr": "2021",
                "age_grp": ">25 - 30",
                "gender": "Female",
                "net_bal_amt": "8250859000"
            },
            {
                "_id": 67,
                "yr": "2021",
                "age_grp": ">30 - 35",
                "gender": "Male",
                "net_bal_amt": "15200381000"
            },
            {
                "_id": 68,
                "yr": "2021",
                "age_grp": ">30 - 35",
                "gender": "Female",
                "net_bal_amt": "16956210000"
            },
            {
                "_id": 69,
                "yr": "2021",
                "age_grp": ">35 - 40",
                "gender": "Male",
                "net_bal_amt": "21012758000"
            },
            {
                "_id": 70,
                "yr": "2021",
                "age_grp": ">35 - 40",
                "gender": "Female",
                "net_bal_amt": "22148305000"
            },
            {
                "_id": 71,
                "yr": "2021",
                "age_grp": ">40 - 45",
                "gender": "Male",
                "net_bal_amt": "29230058000"
            },
            {
                "_id": 72,
                "yr": "2021",
                "age_grp": ">40 - 45",
                "gender": "Female",
                "net_bal_amt": "28992761000"
            },
            {
                "_id": 73,
                "yr": "2021",
                "age_grp": ">45 - 50",
                "gender": "Male",
                "net_bal_amt": "37554694000"
            },
            {
                "_id": 74,
                "yr": "2021",
                "age_grp": ">45 - 50",
                "gender": "Female",
                "net_bal_amt": "35201063000"
            },
            {
                "_id": 75,
                "yr": "2021",
                "age_grp": ">50 - 55",
                "gender": "Male",
                "net_bal_amt": "40797425000"
            },
            {
                "_id": 76,
                "yr": "2021",
                "age_grp": ">50 - 55",
                "gender": "Female",
                "net_bal_amt": "35334464000"
            },
            {
                "_id": 77,
                "yr": "2021",
                "age_grp": ">55 - 60",
                "gender": "Male",
                "net_bal_amt": "39812428000"
            },
            {
                "_id": 78,
                "yr": "2021",
                "age_grp": ">55 - 60",
                "gender": "Female",
                "net_bal_amt": "33656267000"
            },
            {
                "_id": 79,
                "yr": "2021",
                "age_grp": ">60 - 65",
                "gender": "Male",
                "net_bal_amt": "31896259000"
            },
            {
                "_id": 80,
                "yr": "2021",
                "age_grp": ">60 - 65",
                "gender": "Female",
                "net_bal_amt": "26879173000"
            },
            {
                "_id": 81,
                "yr": "2021",
                "age_grp": ">65 - 70",
                "gender": "Male",
                "net_bal_amt": "22643156000"
            },
            {
                "_id": 82,
                "yr": "2021",
                "age_grp": ">65 - 70",
                "gender": "Female",
                "net_bal_amt": "18727011000"
            },
            {
                "_id": 83,
                "yr": "2021",
                "age_grp": ">70 - 75",
                "gender": "Male",
                "net_bal_amt": "11028601000"
            },
            {
                "_id": 84,
                "yr": "2021",
                "age_grp": ">70 - 75",
                "gender": "Female",
                "net_bal_amt": "9077723000"
            },
            {
                "_id": 85,
                "yr": "2021",
                "age_grp": ">75 - 80",
                "gender": "Male",
                "net_bal_amt": "3334960000"
            },
            {
                "_id": 86,
                "yr": "2021",
                "age_grp": ">75 - 80",
                "gender": "Female",
                "net_bal_amt": "2751236000"
            },
            {
                "_id": 87,
                "yr": "2021",
                "age_grp": "Above 80",
                "gender": "Male",
                "net_bal_amt": "2352936000"
            },
            {
                "_id": 88,
                "yr": "2021",
                "age_grp": "Above 80",
                "gender": "Female",
                "net_bal_amt": "2274829000"
            },
            {
                "_id": 89,
                "yr": "2021",
                "age_grp": "Unspecified",
                "gender": "Male",
                "net_bal_amt": "24197000"
            },
            {
                "_id": 90,
                "yr": "2021",
                "age_grp": "Unspecified",
                "gender": "Female",
                "net_bal_amt": "6021000"
            },
            {
                "_id": 91,
                "yr": "2022",
                "age_grp": "Up to 20",
                "gender": "Male",
                "net_bal_amt": "1037013000"
            },
            {
                "_id": 92,
                "yr": "2022",
                "age_grp": "Up to 20",
                "gender": "Female",
                "net_bal_amt": "1021735000"
            },
            {
                "_id": 93,
                "yr": "2022",
                "age_grp": ">20 - 25",
                "gender": "Male",
                "net_bal_amt": "1026790000"
            },
            {
                "_id": 94,
                "yr": "2022",
                "age_grp": ">20 - 25",
                "gender": "Female",
                "net_bal_amt": "1544350000"
            },
            {
                "_id": 95,
                "yr": "2022",
                "age_grp": ">25 - 30",
                "gender": "Male",
                "net_bal_amt": "6625650000"
            },
            {
                "_id": 96,
                "yr": "2022",
                "age_grp": ">25 - 30",
                "gender": "Female",
                "net_bal_amt": "8516630000"
            },
            {
                "_id": 97,
                "yr": "2022",
                "age_grp": ">30 - 35",
                "gender": "Male",
                "net_bal_amt": "16422326000"
            },
            {
                "_id": 98,
                "yr": "2022",
                "age_grp": ">30 - 35",
                "gender": "Female",
                "net_bal_amt": "18215057000"
            },
            {
                "_id": 99,
                "yr": "2022",
                "age_grp": ">35 - 40",
                "gender": "Male",
                "net_bal_amt": "21620458000"
            },
            {
                "_id": 100,
                "yr": "2022",
                "age_grp": ">35 - 40",
                "gender": "Female",
                "net_bal_amt": "23117549000"
            }
        ],
        "_links": {
            "start": "/api/action/datastore_search?resource_id=d_a0982d560463c45e990efef8bb1b4ee5",
            "next": "/api/action/datastore_search?resource_id=d_a0982d560463c45e990efef8bb1b4ee5&offset=100"
        },
        "total": 120
    }
}
