{
    "help": "https://data.gov.sg/api/3/action/help_show?name=datastore_search",
    "success": true,
    "result": {
        "resource_id": "d_09db49ac4034d4be26b4930b16749005",
        "fields": [
            {
                "type": "numeric",
                "id": "yr"
            },
            {
                "type": "text",
                "id": "age_grp"
            },
            {
                "type": "text",
                "id": "gender"
            },
            {
                "type": "text",
                "id": "no_of_mbrs"
            },
            {
                "type": "int4",
                "id": "_id"
            }
        ],
        "records": [
            {
                "_id": 1,
                "yr": "2019",
                "age_grp": "Up to 20",
                "gender": "Male",
                "no_of_mbrs": "190000"
            },
            {
                "_id": 2,
                "yr": "2019",
                "age_grp": "Up to 20",
                "gender": "Female",
                "no_of_mbrs": "182000"
            },
            {
                "_id": 3,
                "yr": "2019",
                "age_grp": ">20 - 25",
                "gender": "Male",
                "no_of_mbrs": "123000"
            },
            {
                "_id": 4,
                "yr": "2019",
                "age_grp": ">20 - 25",
                "gender": "Female",
                "no_of_mbrs": "114000"
            },
            {
                "_id": 5,
                "yr": "2019",
                "age_grp": ">25 - 30",
                "gender": "Male",
                "no_of_mbrs": "144000"
            },
            {
                "_id": 6,
                "yr": "2019",
                "age_grp": ">25 - 30",
                "gender": "Female",
                "no_of_mbrs": "147000"
            },
            {
                "_id": 7,
                "yr": "2019",
                "age_grp": ">30 - 35",
                "gender": "Male",
                "no_of_mbrs": "147000"
            },
            {
                "_id": 8,
                "yr": "2019",
                "age_grp": ">30 - 35",
                "gender": "Female",
                "no_of_mbrs": "159000"
            },
            {
                "_id": 9,
                "yr": "2019",
                "age_grp": ">35 - 40",
                "gender": "Male",
                "no_of_mbrs": "152000"
            },
            {
                "_id": 10,
                "yr": "2019",
                "age_grp": ">35 - 40",
                "gender": "Female",
                "no_of_mbrs": "166000"
            },
            {
                "_id": 11,
                "yr": "2019",
                "age_grp": ">40 - 45",
                "gender": "Male",
                "no_of_mbrs": "158000"
            },
            {
                "_id": 12,
                "yr": "2019",
                "age_grp": ">40 - 45",
                "gender": "Female",
                "no_of_mbrs": "167000"
            },
            {
                "_id": 13,
                "yr": "2019",
                "age_grp": ">45 - 50",
                "gender": "Male",
                "no_of_mbrs": "172000"
            },
            {
                "_id": 14,
                "yr": "2019",
                "age_grp": ">45 - 50",
                "gender": "Female",
                "no_of_mbrs": "176000"
            },
            {
                "_id": 15,
                "yr": "2019",
                "age_grp": ">50 - 55",
                "gender": "Male",
                "no_of_mbrs": "181000"
            },
            {
                "_id": 16,
                "yr": "2019",
                "age_grp": ">50 - 55",
                "gender": "Female",
                "no_of_mbrs": "174000"
            },
            {
                "_id": 17,
                "yr": "2019",
                "age_grp": ">55 - 60",
                "gender": "Male",
                "no_of_mbrs": "201000"
            },
            {
                "_id": 18,
                "yr": "2019",
                "age_grp": ">55 - 60",
                "gender": "Female",
                "no_of_mbrs": "178000"
            },
            {
                "_id": 19,
                "yr": "2019",
                "age_grp": ">60 - 65",
                "gender": "Male",
                "no_of_mbrs": "173000"
            },
            {
                "_id": 20,
                "yr": "2019",
                "age_grp": ">60 - 65",
                "gender": "Female",
                "no_of_mbrs": "160000"
            },
            {
                "_id": 21,
                "yr": "2019",
                "age_grp": ">65 - 70",
                "gender": "Male",
                "no_of_mbrs": "135000"
            },
            {
                "_id": 22,
                "yr": "2019",
                "age_grp": ">65 - 70",
                "gender": "Female",
                "no_of_mbrs": "128000"
            },
            {
                "_id": 23,
                "yr": "2019",
                "age_grp": ">70 - 75",
                "gender": "Male",
                "no_of_mbrs": "90000"
            },
            {
                "_id": 24,
                "yr": "2019",
                "age_grp": ">70 - 75",
                "gender": "Female",
                "no_of_mbrs": "90000"
            },
            {
                "_id": 25,
                "yr": "2019",
                "age_grp": ">75 - 80",
                "gender": "Male",
                "no_of_mbrs": "52000"
            },
            {
                "_id": 26,
                "yr": "2019",
                "age_grp": ">75 - 80",
                "gender": "Female",
                "no_of_mbrs": "56000"
            },
            {
                "_id": 27,
                "yr": "2019",
                "age_grp": "Above 80",
                "gender": "Male",
                "no_of_mbrs": "64000"
            },
            {
                "_id": 28,
                "yr": "2019",
                "age_grp": "Above 80",
                "gender": "Female",
                "no_of_mbrs": "81000"
            },
            {
                "_id": 29,
                "yr": "2019",
                "age_grp": "Unspecified",
                "gender": "Male",
                "no_of_mbrs": "14000"
            },
            {
                "_id": 30,
                "yr": "2019",
                "age_grp": "Unspecified",
                "gender": "Female",
                "no_of_mbrs": "3000"
            },
            {
                "_id": 31,
                "yr": "2020",
                "age_grp": "Up to 20",
                "gender": "Male",
                "no_of_mbrs": "203000"
            },
            {
                "_id": 32,
                "yr": "2020",
                "age_grp": "Up to 20",
                "gender": "Female",
                "no_of_mbrs": "194000"
            },
            {
                "_id": 33,
                "yr": "2020",
                "age_grp": ">20 - 25",
                "gender": "Male",
                "no_of_mbrs": "122000"
            },
            {
                "_id": 34,
                "yr": "2020",
                "age_grp": ">20 - 25",
                "gender": "Female",
                "no_of_mbrs": "112000"
            },
            {
                "_id": 35,
                "yr": "2020",
                "age_grp": ">25 - 30",
                "gender": "Male",
                "no_of_mbrs": "143000"
            },
            {
                "_id": 36,
                "yr": "2020",
                "age_grp": ">25 - 30",
                "gender": "Female",
                "no_of_mbrs": "144000"
            },
            {
                "_id": 37,
                "yr": "2020",
                "age_grp": ">30 - 35",
                "gender": "Male",
                "no_of_mbrs": "151000"
            },
            {
                "_id": 38,
                "yr": "2020",
                "age_grp": ">30 - 35",
                "gender": "Female",
                "no_of_mbrs": "163000"
            },
            {
                "_id": 39,
                "yr": "2020",
                "age_grp": ">35 - 40",
                "gender": "Male",
                "no_of_mbrs": "151000"
            },
            {
                "_id": 40,
                "yr": "2020",
                "age_grp": ">35 - 40",
                "gender": "Female",
                "no_of_mbrs": "167000"
            },
            {
                "_id": 41,
                "yr": "2020",
                "age_grp": ">40 - 45",
                "gender": "Male",
                "no_of_mbrs": "158000"
            },
            {
                "_id": 42,
                "yr": "2020",
                "age_grp": ">40 - 45",
                "gender": "Female",
                "no_of_mbrs": "169000"
            },
            {
                "_id": 43,
                "yr": "2020",
                "age_grp": ">45 - 50",
                "gender": "Male",
                "no_of_mbrs": "170000"
            },
            {
                "_id": 44,
                "yr": "2020",
                "age_grp": ">45 - 50",
                "gender": "Female",
                "no_of_mbrs": "174000"
            },
            {
                "_id": 45,
                "yr": "2020",
                "age_grp": ">50 - 55",
                "gender": "Male",
                "no_of_mbrs": "175000"
            },
            {
                "_id": 46,
                "yr": "2020",
                "age_grp": ">50 - 55",
                "gender": "Female",
                "no_of_mbrs": "173000"
            },
            {
                "_id": 47,
                "yr": "2020",
                "age_grp": ">55 - 60",
                "gender": "Male",
                "no_of_mbrs": "201000"
            },
            {
                "_id": 48,
                "yr": "2020",
                "age_grp": ">55 - 60",
                "gender": "Female",
                "no_of_mbrs": "178000"
            },
            {
                "_id": 49,
                "yr": "2020",
                "age_grp": ">60 - 65",
                "gender": "Male",
                "no_of_mbrs": "179000"
            },
            {
                "_id": 50,
                "yr": "2020",
                "age_grp": ">60 - 65",
                "gender": "Female",
                "no_of_mbrs": "165000"
            },
            {
                "_id": 51,
                "yr": "2020",
                "age_grp": ">65 - 70",
                "gender": "Male",
                "no_of_mbrs": "142000"
            },
            {
                "_id": 52,
                "yr": "2020",
                "age_grp": ">65 - 70",
                "gender": "Female",
                "no_of_mbrs": "134000"
            },
            {
                "_id": 53,
                "yr": "2020",
                "age_grp": ">70 - 75",
                "gender": "Male",
                "no_of_mbrs": "101000"
            },
            {
                "_id": 54,
                "yr": "2020",
                "age_grp": ">70 - 75",
                "gender": "Female",
                "no_of_mbrs": "102000"
            },
            {
                "_id": 55,
                "yr": "2020",
                "age_grp": ">75 - 80",
                "gender": "Male",
                "no_of_mbrs": "50000"
            },
            {
                "_id": 56,
                "yr": "2020",
                "age_grp": ">75 - 80",
                "gender": "Female",
                "no_of_mbrs": "54000"
            },
            {
                "_id": 57,
                "yr": "2020",
                "age_grp": "Above 80",
                "gender": "Male",
                "no_of_mbrs": "69000"
            },
            {
                "_id": 58,
                "yr": "2020",
                "age_grp": "Above 80",
                "gender": "Female",
                "no_of_mbrs": "87000"
            },
            {
                "_id": 59,
                "yr": "2020",
                "age_grp": "Unspecified",
                "gender": "Male",
                "no_of_mbrs": "14000"
            },
            {
                "_id": 60,
                "yr": "2020",
                "age_grp": "Unspecified",
                "gender": "Female",
                "no_of_mbrs": "3000"
            },
            {
                "_id": 61,
                "yr": "2021",
                "age_grp": "Up to 20",
                "gender": "Male",
                "no_of_mbrs": "220000"
            },
            {
                "_id": 62,
                "yr": "2021",
                "age_grp": "Up to 20",
                "gender": "Female",
                "no_of_mbrs": "212000"
            },
            {
                "_id": 63,
                "yr": "2021",
                "age_grp": ">20 - 25",
                "gender": "Male",
                "no_of_mbrs": "119000"
            },
            {
                "_id": 64,
                "yr": "2021",
                "age_grp": ">20 - 25",
                "gender": "Female",
                "no_of_mbrs": "109000"
            },
            {
                "_id": 65,
                "yr": "2021",
                "age_grp": ">25 - 30",
                "gender": "Male",
                "no_of_mbrs": "143000"
            },
            {
                "_id": 66,
                "yr": "2021",
                "age_grp": ">25 - 30",
                "gender": "Female",
                "no_of_mbrs": "144000"
            },
            {
                "_id": 67,
                "yr": "2021",
                "age_grp": ">30 - 35",
                "gender": "Male",
                "no_of_mbrs": "157000"
            },
            {
                "_id": 68,
                "yr": "2021",
                "age_grp": ">30 - 35",
                "gender": "Female",
                "no_of_mbrs": "170000"
            },
            {
                "_id": 69,
                "yr": "2021",
                "age_grp": ">35 - 40",
                "gender": "Male",
                "no_of_mbrs": "148000"
            },
            {
                "_id": 70,
                "yr": "2021",
                "age_grp": ">35 - 40",
                "gender": "Female",
                "no_of_mbrs": "164000"
            },
            {
                "_id": 71,
                "yr": "2021",
                "age_grp": ">40 - 45",
                "gender": "Male",
                "no_of_mbrs": "157000"
            },
            {
                "_id": 72,
                "yr": "2021",
                "age_grp": ">40 - 45",
                "gender": "Female",
                "no_of_mbrs": "170000"
            },
            {
                "_id": 73,
                "yr": "2021",
                "age_grp": ">45 - 50",
                "gender": "Male",
                "no_of_mbrs": "169000"
            },
            {
                "_id": 74,
                "yr": "2021",
                "age_grp": ">45 - 50",
                "gender": "Female",
                "no_of_mbrs": "174000"
            },
            {
                "_id": 75,
                "yr": "2021",
                "age_grp": ">50 - 55",
                "gender": "Male",
                "no_of_mbrs": "170000"
            },
            {
                "_id": 76,
                "yr": "2021",
                "age_grp": ">50 - 55",
                "gender": "Female",
                "no_of_mbrs": "172000"
            },
            {
                "_id": 77,
                "yr": "2021",
                "age_grp": ">55 - 60",
                "gender": "Male",
                "no_of_mbrs": "199000"
            },
            {
                "_id": 78,
                "yr": "2021",
                "age_grp": ">55 - 60",
                "gender": "Female",
                "no_of_mbrs": "179000"
            },
            {
                "_id": 79,
                "yr": "2021",
                "age_grp": ">60 - 65",
                "gender": "Male",
                "no_of_mbrs": "183000"
            },
            {
                "_id": 80,
                "yr": "2021",
                "age_grp": ">60 - 65",
                "gender": "Female",
                "no_of_mbrs": "167000"
            },
            {
                "_id": 81,
                "yr": "2021",
                "age_grp": ">65 - 70",
                "gender": "Male",
                "no_of_mbrs": "149000"
            },
            {
                "_id": 82,
                "yr": "2021",
                "age_grp": ">65 - 70",
                "gender": "Female",
                "no_of_mbrs": "141000"
            },
            {
                "_id": 83,
                "yr": "2021",
                "age_grp": ">70 - 75",
                "gender": "Male",
                "no_of_mbrs": "108000"
            },
            {
                "_id": 84,
                "yr": "2021",
                "age_grp": ">70 - 75",
                "gender": "Female",
                "no_of_mbrs": "107000"
            },
            {
                "_id": 85,
                "yr": "2021",
                "age_grp": ">75 - 80",
                "gender": "Male",
                "no_of_mbrs": "55000"
            },
            {
                "_id": 86,
                "yr": "2021",
                "age_grp": ">75 - 80",
                "gender": "Female",
                "no_of_mbrs": "58000"
            },
            {
                "_id": 87,
                "yr": "2021",
                "age_grp": "Above 80",
                "gender": "Male",
                "no_of_mbrs": "71000"
            },
            {
                "_id": 88,
                "yr": "2021",
                "age_grp": "Above 80",
                "gender": "Female",
                "no_of_mbrs": "91000"
            },
            {
                "_id": 89,
                "yr": "2021",
                "age_grp": "Unspecified",
                "gender": "Male",
                "no_of_mbrs": "14000"
            },
            {
                "_id": 90,
                "yr": "2021",
                "age_grp": "Unspecified",
                "gender": "Female",
                "no_of_mbrs": "3000"
            },
            {
                "_id": 91,
                "yr": "2022",
                "age_grp": "Up to 20",
                "gender": "Male",
                "no_of_mbrs": "241000"
            },
            {
                "_id": 92,
                "yr": "2022",
                "age_grp": "Up to 20",
                "gender": "Female",
                "no_of_mbrs": "233000"
            },
            {
                "_id": 93,
                "yr": "2022",
                "age_grp": ">20 - 25",
                "gender": "Male",
                "no_of_mbrs": "116000"
            },
            {
                "_id": 94,
                "yr": "2022",
                "age_grp": ">20 - 25",
                "gender": "Female",
                "no_of_mbrs": "107000"
            },
            {
                "_id": 95,
                "yr": "2022",
                "age_grp": ">25 - 30",
                "gender": "Male",
                "no_of_mbrs": "142000"
            },
            {
                "_id": 96,
                "yr": "2022",
                "age_grp": ">25 - 30",
                "gender": "Female",
                "no_of_mbrs": "142000"
            },
            {
                "_id": 97,
                "yr": "2022",
                "age_grp": ">30 - 35",
                "gender": "Male",
                "no_of_mbrs": "161000"
            },
            {
                "_id": 98,
                "yr": "2022",
                "age_grp": ">30 - 35",
                "gender": "Female",
                "no_of_mbrs": "174000"
            },
            {
                "_id": 99,
                "yr": "2022",
                "age_grp": ">35 - 40",
                "gender": "Male",
                "no_of_mbrs": "147000"
            },
            {
                "_id": 100,
                "yr": "2022",
                "age_grp": ">35 - 40",
                "gender": "Female",
                "no_of_mbrs": "164000"
            }
        ],
        "_links": {
            "start": "/api/action/datastore_search?resource_id=d_09db49ac4034d4be26b4930b16749005",
            "next": "/api/action/datastore_search?resource_id=d_09db49ac4034d4be26b4930b16749005&offset=100"
        },
        "total": 120
    }
}
